…
    ## New names:
    ## Rows: 3220 Columns: 7
    ## ── Column specification
    ## ──────────────────────────────────────────────────────── Delimiter: "," chr
    ## (5): Geography, Geographic Area Name, Annotation of Estimate!!Total, Mar... dbl
    ## (1): Estimate!!Total lgl (1): ...7
    ## ℹ Use `spec()` to retrieve the full column specification for this data. ℹ
    ## Specify the column types or set `show_col_types = FALSE` to quiet this message.
    ## • `` -> `...7`

``` r
df_pop
```

    ## # A tibble: 3,220 × 7
    ##    Geography      `Geographic Area Name`   Estim…¹ Annot…² Margi…³ Annot…⁴ ...7 
    ##    <chr>          <chr>                      <dbl> <chr>   <chr>   <chr>   <lgl>
    ##  1 0500000US01001 Autauga County, Alabama    55200 null    *****   *****   NA   
    ##  2 0500000US01003 Baldwin County, Alabama   208107 null    *****   *****   NA   
    ##  3 0500000US01005 Barbour County, Alabama    25782 null    *****   *****   NA   
    ##  4 0500000US01007 Bibb County, Alabama       22527 null    *****   *****   NA   
    ##  5 0500000US01009 Blount County, Alabama     57645 null    *****   *****   NA   
    ##  6 0500000US01011 Bullock County, Alabama    10352 null    *****   *****   NA   
    ##  7 0500000US01013 Butler County, Alabama     20025 null    *****   *****   NA   
    ##  8 0500000US01015 Calhoun County, Alabama   115098 null    *****   *****   NA   
    ##  9 0500000US01017 Chambers County, Alabama   33826 null    *****   *****   NA   
    ## 10 0500000US01019 Cherokee County, Alabama   25853 null    *****   *****   NA   
    ## # … with 3,210 more rows, and abbreviated variable names ¹​`Estimate!!Total`,
    ## #   ²​`Annotation of Estimate!!Total`, ³​`Margin of Error!!Total`,
    ## #   ⁴​`Annotation of Margin of Error!!Total`
…
### **q3** Process the `id` column of `df_pop` to create a `fips` column.

``` r
## TASK: Create a `fips` column by extracting the county code
df_q3 <- df_pop %>%
  mutate(fips = str_sub(Geography, 10))

df_q3
```

    ## # A tibble: 3,220 × 8
    ##    Geography      Geographic Area …¹ Estim…² Annot…³ Margi…⁴ Annot…⁵ ...7  fips 
    ##    <chr>          <chr>                <dbl> <chr>   <chr>   <chr>   <lgl> <chr>
    ##  1 0500000US01001 Autauga County, A…   55200 null    *****   *****   NA    01001
    ##  2 0500000US01003 Baldwin County, A…  208107 null    *****   *****   NA    01003
    ##  3 0500000US01005 Barbour County, A…   25782 null    *****   *****   NA    01005
    ##  4 0500000US01007 Bibb County, Alab…   22527 null    *****   *****   NA    01007
    ##  5 0500000US01009 Blount County, Al…   57645 null    *****   *****   NA    01009
    ##  6 0500000US01011 Bullock County, A…   10352 null    *****   *****   NA    01011
    ##  7 0500000US01013 Butler County, Al…   20025 null    *****   *****   NA    01013
    ##  8 0500000US01015 Calhoun County, A…  115098 null    *****   *****   NA    01015
    ##  9 0500000US01017 Chambers County, …   33826 null    *****   *****   NA    01017
    ## 10 0500000US01019 Cherokee County, …   25853 null    *****   *****   NA    01019
    ## # … with 3,210 more rows, and abbreviated variable names
    ## #   ¹​`Geographic Area Name`, ²​`Estimate!!Total`,
    ## #   ³​`Annotation of Estimate!!Total`, ⁴​`Margin of Error!!Total`,
    ## #   ⁵​`Annotation of Margin of Error!!Total`
…
    ## [1] "Very good!"

### **q4** Join `df_covid` with `df_q3` by the `fips` column. Use the proper type of join to preserve *only* the rows in `df_covid`.

``` r
## TASK: Join df_covid and df_q3 by fips.
df_q4 <- df_covid %>%
  left_join(df_q3, by = "fips")

df_q4
```

    ## # A tibble: 884,737 × 13
    ##    date       county    state fips  cases deaths Geogr…¹ Geogr…² Estim…³ Annot…⁴
    ##    <date>     <chr>     <chr> <chr> <dbl>  <dbl> <chr>   <chr>     <dbl> <chr>  
    ##  1 2020-01-21 Snohomish Wash… 53061     1      0 050000… Snohom…  7.87e5 null   
    ##  2 2020-01-22 Snohomish Wash… 53061     1      0 050000… Snohom…  7.87e5 null   
    ##  3 2020-01-23 Snohomish Wash… 53061     1      0 050000… Snohom…  7.87e5 null   
    ##  4 2020-01-24 Cook      Illi… 17031     1      0 050000… Cook C…  5.22e6 null   
    ##  5 2020-01-24 Snohomish Wash… 53061     1      0 050000… Snohom…  7.87e5 null   
    ##  6 2020-01-25 Orange    Cali… 06059     1      0 050000… Orange…  3.16e6 null   
    ##  7 2020-01-25 Cook      Illi… 17031     1      0 050000… Cook C…  5.22e6 null   
    ##  8 2020-01-25 Snohomish Wash… 53061     1      0 050000… Snohom…  7.87e5 null   
    ##  9 2020-01-26 Maricopa  Ariz… 04013     1      0 050000… Marico…  4.25e6 null   
    ## 10 2020-01-26 Los Ange… Cali… 06037     1      0 050000… Los An…  1.01e7 null   
    ## # … with 884,727 more rows, 3 more variables: `Margin of Error!!Total` <chr>,
    ## #   `Annotation of Margin of Error!!Total` <chr>, ...7 <lgl>, and abbreviated
    ## #   variable names ¹​Geography, ²​`Geographic Area Name`, ³​`Estimate!!Total`,
    ## #   ⁴​`Annotation of Estimate!!Total`
…
<!-- ------------------------- -->

### **q5** Use the `population` estimates in `df_data` to normalize `cases` and `deaths` to produce per 100,000 counts \[3\]. Store these values in the columns `cases_per100k` and `deaths_per100k`.

``` r
## TASK: Normalize cases and deaths
df_normalized <-
  df_data %>%
    mutate(cases_per100k = cases / population * 100000, deaths_per100k = deaths / population * 100000)

df_normalized
```

    ## # A tibble: 884,737 × 9
    ##    date       county      state      fips  cases deaths popula…¹ cases…² death…³
    ##    <date>     <chr>       <chr>      <chr> <dbl>  <dbl>    <dbl>   <dbl>   <dbl>
    ##  1 2020-01-21 Snohomish   Washington 53061     1      0   786620 0.127         0
    ##  2 2020-01-22 Snohomish   Washington 53061     1      0   786620 0.127         0
    ##  3 2020-01-23 Snohomish   Washington 53061     1      0   786620 0.127         0
    ##  4 2020-01-24 Cook        Illinois   17031     1      0  5223719 0.0191        0
    ##  5 2020-01-24 Snohomish   Washington 53061     1      0   786620 0.127         0
    ##  6 2020-01-25 Orange      California 06059     1      0  3164182 0.0316        0
    ##  7 2020-01-25 Cook        Illinois   17031     1      0  5223719 0.0191        0
    ##  8 2020-01-25 Snohomish   Washington 53061     1      0   786620 0.127         0
    ##  9 2020-01-26 Maricopa    Arizona    04013     1      0  4253913 0.0235        0
    ## 10 2020-01-26 Los Angeles California 06037     1      0 10098052 0.00990       0
    ## # … with 884,727 more rows, and abbreviated variable names ¹​population,
    ## #   ²​cases_per100k, ³​deaths_per100k
…
``` r
# Finding SD and mean for each day - that generally makes more sense for this dataset than averaging across all dates
df_normalized %>%
  group_by(date) %>%
  drop_na(cases_per100k, deaths_per100k) %>%
  summarize(
   cases_per100k_sd = sd(cases_per100k),
   cases_per100k_mean = mean(cases_per100k),
   deaths_per100k_sd = sd(deaths_per100k),
   deaths_per100k_mean = mean(deaths_per100k),
  )
```

    ## # A tibble: 346 × 5
    ##    date       cases_per100k_sd cases_per100k_mean deaths_per100k_sd deaths_per…¹
    ##    <date>                <dbl>              <dbl>             <dbl>        <dbl>
    ##  1 2020-01-21          NA                  0.127                 NA            0
    ##  2 2020-01-22          NA                  0.127                 NA            0
    ##  3 2020-01-23          NA                  0.127                 NA            0
    ##  4 2020-01-24           0.0764             0.0731                 0            0
    ##  5 2020-01-25           0.0591             0.0593                 0            0
    ##  6 2020-01-26           0.0481             0.0423                 0            0
    ##  7 2020-01-27           0.0481             0.0423                 0            0
    ##  8 2020-01-28           0.0481             0.0423                 0            0
    ##  9 2020-01-29           0.0481             0.0423                 0            0
    ## 10 2020-01-30           0.0465             0.0461                 0            0
    ## # … with 336 more rows, and abbreviated variable name ¹​deaths_per100k_mean
…
    ## Warning: There were 2 warnings in `mutate()`.
    ## The first warning was:
    ## ℹ In argument: `population = .Primitive("as.double")(population)`.
    ## Caused by warning:
    ## ! NAs introduced by coercion
    ## ℹ Run ]8;;ide:run:dplyr::last_dplyr_warnings()dplyr::last_dplyr_warnings()]8;; to see the 1 remaining warning.

``` r
df_race
```

    ## # A tibble: 841 × 4
    ##    Geography      `Geographic Area Name`     population population_white
    ##    <chr>          <chr>                           <dbl>            <dbl>
    ##  1 0500000US01003 Baldwin County, Alabama        239294           198355
    ##  2 0500000US01015 Calhoun County, Alabama        115972            82072
    ##  3 0500000US01043 Cullman County, Alabama         89496            81885
    ##  4 0500000US01049 DeKalb County, Alabama          71813            58855
    ##  5 0500000US01051 Elmore County, Alabama          89304            66105
    ##  6 0500000US01055 Etowah County, Alabama         103162            79421
    ##  7 0500000US01069 Houston County, Alabama        107458            69907
    ##  8 0500000US01073 Jefferson County, Alabama      667820           326427
    ##  9 0500000US01077 Lauderdale County, Alabama      94043            79120
    ## 10 0500000US01081 Lee County, Alabama            177218           120083
    ## # … with 831 more rows

``` r
# get fips code for race dataset and calculate % white for each county
df_race_2 <- df_race %>%
  mutate(fips = str_sub(Geography, 10),
         pct_white = population_white/population)

df_race_2
```

    ## # A tibble: 841 × 6
    ##    Geography      `Geographic Area Name`     population populati…¹ fips  pct_w…²
    ##    <chr>          <chr>                           <dbl>      <dbl> <chr>   <dbl>
    ##  1 0500000US01003 Baldwin County, Alabama        239294     198355 01003   0.829
    ##  2 0500000US01015 Calhoun County, Alabama        115972      82072 01015   0.708
    ##  3 0500000US01043 Cullman County, Alabama         89496      81885 01043   0.915
    ##  4 0500000US01049 DeKalb County, Alabama          71813      58855 01049   0.820
    ##  5 0500000US01051 Elmore County, Alabama          89304      66105 01051   0.740
    ##  6 0500000US01055 Etowah County, Alabama         103162      79421 01055   0.770
    ##  7 0500000US01069 Houston County, Alabama        107458      69907 01069   0.651
    ##  8 0500000US01073 Jefferson County, Alabama      667820     326427 01073   0.489
    ##  9 0500000US01077 Lauderdale County, Alabama      94043      79120 01077   0.841
    ## 10 0500000US01081 Lee County, Alabama            177218     120083 01081   0.678
    ## # … with 831 more rows, and abbreviated variable names ¹​population_white,
    ## #   ²​pct_white

``` r
df_normalized_with_max_and_county_names <- df_normalized %>%
  select("fips", "county", "state") %>%
  distinct(fips, .keep_all = TRUE) %>%
  right_join(df_normalized_with_max, by = "fips")

df_normalized_with_max_and_county_names
```

    ## # A tibble: 3,219 × 5
    ##    fips  county        state         cases_per100k_max deaths_per100k_max
    ##    <chr> <chr>         <chr>                     <dbl>              <dbl>
    ##  1 53061 Snohomish     Washington                2948.               50.0
    ##  2 17031 Cook          Illinois                  7536.              159. 
    ##  3 06059 Orange        California                5252.               59.3
    ##  4 04013 Maricopa      Arizona                   7580.              120. 
    ##  5 06037 Los Angeles   California                7634.              102. 
    ##  6 06085 Santa Clara   California                3635.               36.9
    ##  7 25025 Suffolk       Massachusetts             6890.              174. 
    ##  8 06075 San Francisco California                2670.               21.4
    ##  9 55025 Dane          Wisconsin                 6512.               37.6
    ## 10 06073 San Diego     California                4713.               46.4
    ## # … with 3,209 more rows

``` r
# join race dataset with normalized dataset from above and select only california counties

df_data_race_ca <- df_normalized_with_max_and_county_names %>%
  left_join(df_race_2, by = "fips") %>%
  filter(state == c("California")) %>%
  drop_na("Geography") %>%
  arrange(desc(deaths_per100k_max)) %>%
  distinct(fips, .keep_all = TRUE)

df_data_race_ca
```

    ## # A tibble: 42 × 10
    ##    fips  county    state cases…¹ death…² Geogr…³ Geogr…⁴ popul…⁵ popul…⁶ pct_w…⁷
    ##    <chr> <chr>     <chr>   <dbl>   <dbl> <chr>   <chr>     <dbl>   <dbl>   <dbl>
    ##  1 06025 Imperial  Cali…  12356.   232.  050000… Imperi…  179851   30270   0.168
    ##  2 06099 Stanisla… Cali…   6958.   114.  050000… Stanis…  552999  230860   0.417
    ##  3 06037 Los Ange… Cali…   7634.   102.  050000… Los An… 9829544 2909096   0.296
    ##  4 06047 Merced    Cali…   7226.    96.6 050000… Merced…  286461   86433   0.302
    ##  5 06077 San Joaq… Cali…   6225.    88.9 050000… San Jo…  789410  246993   0.313
    ##  6 06107 Tulare    Cali…   7263.    88.2 050000… Tulare…  477054  178557   0.374
    ##  7 06065 Riverside Cali…   7576.    83.3 050000… Rivers… 2458395  887331   0.361
    ##  8 06039 Madera    Cali…   6768.    75.5 050000… Madera…  159410   60686   0.381
    ##  9 06031 Kings     Cali…  10737.    73.3 050000… Kings …  153443   55481   0.362
    ## 10 06071 San Bern… Cali…   9103.    67.7 050000… San Be… 2194710  723292   0.330
    ## # … with 32 more rows, and abbreviated variable names ¹​cases_per100k_max,
    ## #   ²​deaths_per100k_max, ³​Geography, ⁴​`Geographic Area Name`, ⁵​population,
    ## #   ⁶​population_white, ⁷​pct_white
…
