…
    ## New names:
    ## Rows: 3220 Columns: 7
    ## ── Column specification
    ## ──────────────────────────────────────────────────────── Delimiter: "," chr
    ## (5): Geography, Geographic Area Name, Annotation of Estimate!!Total, Mar... dbl
    ## (1): Estimate!!Total lgl (1): ...7
    ## ℹ Use `spec()` to retrieve the full column specification for this data. ℹ
    ## Specify the column types or set `show_col_types = FALSE` to quiet this message.
    ## • `` -> `...7`

``` r
df_pop
```

    ## # A tibble: 3,220 × 7
    ##    Geography      `Geographic Area Name`   popul…¹ Annot…² Margi…³ Annot…⁴ ...7 
    ##    <chr>          <chr>                      <dbl> <chr>   <chr>   <chr>   <lgl>
    ##  1 0500000US01001 Autauga County, Alabama    55200 null    *****   *****   NA   
    ##  2 0500000US01003 Baldwin County, Alabama   208107 null    *****   *****   NA   
    ##  3 0500000US01005 Barbour County, Alabama    25782 null    *****   *****   NA   
    ##  4 0500000US01007 Bibb County, Alabama       22527 null    *****   *****   NA   
    ##  5 0500000US01009 Blount County, Alabama     57645 null    *****   *****   NA   
    ##  6 0500000US01011 Bullock County, Alabama    10352 null    *****   *****   NA   
    ##  7 0500000US01013 Butler County, Alabama     20025 null    *****   *****   NA   
    ##  8 0500000US01015 Calhoun County, Alabama   115098 null    *****   *****   NA   
    ##  9 0500000US01017 Chambers County, Alabama   33826 null    *****   *****   NA   
    ## 10 0500000US01019 Cherokee County, Alabama   25853 null    *****   *****   NA   
    ## # … with 3,210 more rows, and abbreviated variable names ¹​population_estimate,
    ## #   ²​`Annotation of Estimate!!Total`, ³​`Margin of Error!!Total`,
    ## #   ⁴​`Annotation of Margin of Error!!Total`
…
    ## Rows: 3220 Columns: 483
    ## ── Column specification ────────────────────────────────────────────────────────
    ## Delimiter: ","
    ## chr (306): Geography, Geographic Area Name, Annotation of Margin of Error!!N...
    ## dbl (176): Estimate!!Number!!HOUSEHOLD INCOME BY RACE AND HISPANIC OR LATINO...
    ## lgl   (1): ...483
    ## 
    ## ℹ Use `spec()` to retrieve the full column specification for this data.
    ## ℹ Specify the column types or set `show_col_types = FALSE` to quiet this message.

``` r
df_income
```

    ## # A tibble: 3,220 × 483
    ##    Geography     Geogr…¹ Estim…² Margi…³ Annot…⁴ Annot…⁵ Estim…⁶ Margi…⁷ Annot…⁸
    ##    <chr>         <chr>     <dbl>   <dbl> <chr>   <chr>     <dbl>   <dbl> <chr>  
    ##  1 0500000US010… Autaug…   21115     383 null    null      16585     363 null   
    ##  2 0500000US010… Baldwi…   78622    1183 null    null      69544    1042 null   
    ##  3 0500000US010… Barbou…    9186     280 null    null       4729     211 null   
    ##  4 0500000US010… Bibb C…    6840     321 null    null       5588     346 null   
    ##  5 0500000US010… Blount…   20600     396 null    null      20054     417 null   
    ##  6 0500000US010… Bulloc…    3609     196 null    null        881     119 null   
    ##  7 0500000US010… Butler…    6708     274 null    null       3821     173 null   
    ##  8 0500000US010… Calhou…   45033     683 null    null      33820     559 null   
    ##  9 0500000US010… Chambe…   13516     372 null    null       7953     296 null   
    ## 10 0500000US010… Cherok…   10606     370 null    null       9953     356 null   
    ## # … with 3,210 more rows, 474 more variables:
    ## #   `Annotation of Estimate!!Number!!HOUSEHOLD INCOME BY RACE AND HISPANIC OR LATINO ORIGIN OF HOUSEHOLDER!!Households!!One race--!!White` <chr>,
    ## #   `Estimate!!Number!!HOUSEHOLD INCOME BY RACE AND HISPANIC OR LATINO ORIGIN OF HOUSEHOLDER!!Households!!One race--!!Black or African American` <dbl>,
    ## #   `Annotation of Estimate!!Number!!HOUSEHOLD INCOME BY RACE AND HISPANIC OR LATINO ORIGIN OF HOUSEHOLDER!!Households!!One race--!!Black or African American` <chr>,
    ## #   `Margin of Error!!Number MOE!!HOUSEHOLD INCOME BY RACE AND HISPANIC OR LATINO ORIGIN OF HOUSEHOLDER!!Households!!One race--!!Black or African American` <dbl>,
    ## #   `Annotation of Margin of Error!!Number MOE!!HOUSEHOLD INCOME BY RACE AND HISPANIC OR LATINO ORIGIN OF HOUSEHOLDER!!Households!!One race--!!Black or African American` <chr>,
    ## #   `Estimate!!Number!!HOUSEHOLD INCOME BY RACE AND HISPANIC OR LATINO ORIGIN OF HOUSEHOLDER!!Households!!One race--!!American Indian and Alaska Native` <dbl>, …
…
    ## Rows: 15,286
    ## Columns: 5
    ## $ Geography            <chr> "0500000US01001", "0500000US01001", "0500000US010…
    ## $ geographic_area_name <chr> "Autauga County, Alabama", "Autauga County, Alaba…
    ## $ category             <chr> "2-person families", "3-person families", "4-pers…
    ## $ income_estimate      <dbl> 64947, 80172, 85455, 88601, 103787, 63975, 79390,…
    ## $ income_moe           <dbl> 6663, 14181, 10692, 20739, 12387, 2297, 8851, 519…

``` r
df_q3
```

    ## # A tibble: 15,286 × 5
    ##    Geography      geographic_area_name    category          income_est…¹ incom…²
    ##    <chr>          <chr>                   <chr>                    <dbl>   <dbl>
    ##  1 0500000US01001 Autauga County, Alabama 2-person families        64947    6663
    ##  2 0500000US01001 Autauga County, Alabama 3-person families        80172   14181
    ##  3 0500000US01001 Autauga County, Alabama 4-person families        85455   10692
    ##  4 0500000US01001 Autauga County, Alabama 5-person families        88601   20739
    ##  5 0500000US01001 Autauga County, Alabama 6-person families       103787   12387
    ##  6 0500000US01003 Baldwin County, Alabama 2-person families        63975    2297
    ##  7 0500000US01003 Baldwin County, Alabama 3-person families        79390    8851
    ##  8 0500000US01003 Baldwin County, Alabama 4-person families        88458    5199
    ##  9 0500000US01003 Baldwin County, Alabama 5-person families        91259    7011
    ## 10 0500000US01003 Baldwin County, Alabama 6-person families        69609   23175
    ## # … with 15,276 more rows, and abbreviated variable names ¹​income_estimate,
    ## #   ²​income_moe
…
df_q4 <-
  df_q3 %>%
    mutate(
      income_SE = income_moe / 1.645,
      income_CV = income_SE / income_estimate,
      income_lo = income_estimate - q99 * income_SE,
      income_hi = income_estimate + q99 * income_SE
    )

df_q4
```

    ## # A tibble: 15,286 × 9
    ##    Geography     geogr…¹ categ…² incom…³ incom…⁴ incom…⁵ incom…⁶ incom…⁷ incom…⁸
    ##    <chr>         <chr>   <chr>     <dbl>   <dbl>   <dbl>   <dbl>   <dbl>   <dbl>
    ##  1 0500000US010… Autaug… 2-pers…   64947    6663   4050.  0.0624  54514.  75380.
    ##  2 0500000US010… Autaug… 3-pers…   80172   14181   8621.  0.108   57967. 102377.
    ##  3 0500000US010… Autaug… 4-pers…   85455   10692   6500.  0.0761  68713. 102197.
    ##  4 0500000US010… Autaug… 5-pers…   88601   20739  12607.  0.142   56127. 121075.
    ##  5 0500000US010… Autaug… 6-pers…  103787   12387   7530.  0.0726  84391. 123183.
    ##  6 0500000US010… Baldwi… 2-pers…   63975    2297   1396.  0.0218  60378.  67572.
    ##  7 0500000US010… Baldwi… 3-pers…   79390    8851   5381.  0.0678  65531.  93249.
    ##  8 0500000US010… Baldwi… 4-pers…   88458    5199   3160.  0.0357  80317.  96599.
    ##  9 0500000US010… Baldwi… 5-pers…   91259    7011   4262.  0.0467  80281. 102237.
    ## 10 0500000US010… Baldwi… 6-pers…   69609   23175  14088.  0.202   33320. 105898.
    ## # … with 15,276 more rows, and abbreviated variable names
    ## #   ¹​geographic_area_name, ²​category, ³​income_estimate, ⁴​income_moe,
    ## #   ⁵​income_SE, ⁶​income_CV, ⁷​income_lo, ⁸​income_hi
…
### **q5** Join `df_q4` and `df_pop`.

``` r
## TODO: Join df_q4 and df_pop by the appropriate column

df_data <-
  df_q4 %>%
    left_join(df_pop, by = "Geography")

df_data
```

    ## # A tibble: 15,286 × 15
    ##    Geography     geogr…¹ categ…² incom…³ incom…⁴ incom…⁵ incom…⁶ incom…⁷ incom…⁸
    ##    <chr>         <chr>   <chr>     <dbl>   <dbl>   <dbl>   <dbl>   <dbl>   <dbl>
    ##  1 0500000US010… Autaug… 2-pers…   64947    6663   4050.  0.0624  54514.  75380.
    ##  2 0500000US010… Autaug… 3-pers…   80172   14181   8621.  0.108   57967. 102377.
    ##  3 0500000US010… Autaug… 4-pers…   85455   10692   6500.  0.0761  68713. 102197.
    ##  4 0500000US010… Autaug… 5-pers…   88601   20739  12607.  0.142   56127. 121075.
    ##  5 0500000US010… Autaug… 6-pers…  103787   12387   7530.  0.0726  84391. 123183.
    ##  6 0500000US010… Baldwi… 2-pers…   63975    2297   1396.  0.0218  60378.  67572.
    ##  7 0500000US010… Baldwi… 3-pers…   79390    8851   5381.  0.0678  65531.  93249.
    ##  8 0500000US010… Baldwi… 4-pers…   88458    5199   3160.  0.0357  80317.  96599.
    ##  9 0500000US010… Baldwi… 5-pers…   91259    7011   4262.  0.0467  80281. 102237.
    ## 10 0500000US010… Baldwi… 6-pers…   69609   23175  14088.  0.202   33320. 105898.
    ## # … with 15,276 more rows, 6 more variables: `Geographic Area Name` <chr>,
    ## #   population_estimate <dbl>, `Annotation of Estimate!!Total` <chr>,
    ## #   `Margin of Error!!Total` <chr>,
    ## #   `Annotation of Margin of Error!!Total` <chr>, ...7 <lgl>, and abbreviated
    ## #   variable names ¹​geographic_area_name, ²​category, ³​income_estimate,
    ## #   ⁴​income_moe, ⁵​income_SE, ⁶​income_CV, ⁷​income_lo, ⁸​income_hi
…
    ## Warning: There were 10 warnings in `mutate()`.
    ## The first warning was:
    ## ℹ In argument: `across(contains("median"), as.numeric)`.
    ## Caused by warning:
    ## ! NAs introduced by coercion
    ## ℹ Run ]8;;ide:run:dplyr::last_dplyr_warnings()dplyr::last_dplyr_warnings()]8;; to see the 9 remaining warnings.

``` r
df_q8
```

    ## # A tibble: 9,955 × 9
    ##    Geography      geogra…¹ race  incom…² incom…³ incom…⁴ incom…⁵ incom…⁶ incom…⁷
    ##    <chr>          <chr>    <chr>   <dbl>   <dbl>   <dbl>   <dbl>   <dbl>   <dbl>
    ##  1 0500000US01001 Autauga… White   66423    4761   2894.  0.0436  58968.  73878.
    ##  2 0500000US01001 Autauga… Blac…   27643    2692   1636.  0.0592  23428.  31858.
    ##  3 0500000US01003 Baldwin… White   58931    1138    692.  0.0117  57149.  60713.
    ##  4 0500000US01003 Baldwin… Blac…   31112    4951   3010.  0.0967  23359.  38865.
    ##  5 0500000US01003 Baldwin… Amer…   53289    8005   4866.  0.0913  40754.  65824.
    ##  6 0500000US01003 Baldwin… Asian   34763   14953   9090.  0.261   11349.  58177.
    ##  7 0500000US01003 Baldwin… Some…   45634   37471  22779.  0.499  -13040. 104308.
    ##  8 0500000US01005 Barbour… White   46719    4210   2559.  0.0548  40127.  53311.
    ##  9 0500000US01005 Barbour… Blac…   23013    2168   1318.  0.0573  19618.  26408.
    ## 10 0500000US01005 Barbour… Asian   50417   39263  23868.  0.473  -11063. 111897.
    ## # … with 9,945 more rows, and abbreviated variable names ¹​geographic_area_name,
    ## #   ²​income_estimate, ³​income_moe, ⁴​income_SE, ⁵​income_CV, ⁶​income_lo,
    ## #   ⁷​income_hi
…
``` r
df_q8_2 <-
  df_q8 %>%
  left_join(df_race, by = "geographic_area_name") %>%
  select(geographic_area_name, income_estimate, income_lo, income_hi, race, pct_black) %>%
  drop_na()

df_q8_2
```

    ## # A tibble: 4,027 × 6
    ##    geographic_area_name    income_estimate income_lo income_hi race      pct_b…¹
    ##    <chr>                             <dbl>     <dbl>     <dbl> <chr>       <dbl>
    ##  1 Baldwin County, Alabama           58931    57149.    60713. White      0.0890
    ##  2 Baldwin County, Alabama           31112    23359.    38865. Black or…  0.0890
    ##  3 Baldwin County, Alabama           53289    40754.    65824. American…  0.0890
    ##  4 Baldwin County, Alabama           34763    11349.    58177. Asian      0.0890
    ##  5 Baldwin County, Alabama           45634   -13040.   104308. Some oth…  0.0890
    ##  6 Calhoun County, Alabama           51223    47891.    54555. White      0.194 
    ##  7 Calhoun County, Alabama           28478    22716.    34240. Black or…  0.194 
    ##  8 Calhoun County, Alabama           51333    11753.    90913. American…  0.194 
    ##  9 Calhoun County, Alabama           38750    18325.    59175. Asian      0.194 
    ## 10 Calhoun County, Alabama           43942    25800.    62084. Some oth…  0.194 
    ## # … with 4,017 more rows, and abbreviated variable name ¹​pct_black
…
