…
<!-- -------------------------------------------------- -->

### **q1** Go to the [Stanford Open Policing Project](https://openpolicing.stanford.edu/data/) page and download the Massachusetts State Police records in `Rds` format. Move the data to your `data` folder and match the `filename` to load the data.

*Note*: An `Rds` file is an R-specific file format. The function
`readRDS` will read these files.

``` r
## TODO: Download the data, move to your data folder, and load it
filename <- "data/yg821jf8611_ma_statewide_2020_04_01.rds"
df_data <- readRDS(filename)
df_data
```

    ## # A tibble: 3,416,238 × 24
    ##    raw_row_nu…¹ date       locat…² count…³ subje…⁴ subje…⁵ subje…⁶ type  arres…⁷
    ##    <chr>        <date>     <chr>   <chr>     <int> <fct>   <fct>   <fct> <lgl>  
    ##  1 1            2007-06-06 MIDDLE… Plymou…      33 white   male    vehi… FALSE  
    ##  2 2            2007-06-07 SEEKONK Bristo…      36 white   male    vehi… FALSE  
    ##  3 3            2007-06-07 MEDFORD Middle…      56 white   female  vehi… FALSE  
    ##  4 4            2007-06-07 MEDFORD Middle…      37 white   male    vehi… FALSE  
    ##  5 5            2007-06-07 EVERETT Middle…      22 hispan… female  vehi… FALSE  
    ##  6 6            2007-06-07 MEDFORD Middle…      34 white   male    vehi… FALSE  
    ##  7 7            2007-06-07 SOMERV… Middle…      54 hispan… male    vehi… FALSE  
    ##  8 8            2007-06-07 HOPKIN… Middle…      31 hispan… female  vehi… FALSE  
    ##  9 9            2007-06-07 SOMERV… Middle…      21 white   male    vehi… FALSE  
    ## 10 10           2007-06-06 BARNST… Barnst…      56 white   male    vehi… FALSE  
    ## # … with 3,416,228 more rows, 15 more variables: citation_issued <lgl>,
    ## #   warning_issued <lgl>, outcome <fct>, contraband_found <lgl>,
    ## #   contraband_drugs <lgl>, contraband_weapons <lgl>, contraband_alcohol <lgl>,
    ## #   contraband_other <lgl>, frisk_performed <lgl>, search_conducted <lgl>,
    ## #   search_basis <fct>, reason_for_stop <chr>, vehicle_type <chr>,
    ## #   vehicle_registration_state <fct>, raw_Race <chr>, and abbreviated variable
    ## #   names ¹​raw_row_number, ²​location, ³​county_name, ⁴​subject_age, …

# EDA

<!-- -------------------------------------------------- -->

### **q2** Do your “first checks” on the dataset. What are the basic facts about this dataset?

``` r
df_data
```

    ## # A tibble: 3,416,238 × 24
    ##    raw_row_nu…¹ date       locat…² count…³ subje…⁴ subje…⁵ subje…⁶ type  arres…⁷
    ##    <chr>        <date>     <chr>   <chr>     <int> <fct>   <fct>   <fct> <lgl>  
    ##  1 1            2007-06-06 MIDDLE… Plymou…      33 white   male    vehi… FALSE  
    ##  2 2            2007-06-07 SEEKONK Bristo…      36 white   male    vehi… FALSE  
    ##  3 3            2007-06-07 MEDFORD Middle…      56 white   female  vehi… FALSE  
    ##  4 4            2007-06-07 MEDFORD Middle…      37 white   male    vehi… FALSE  
    ##  5 5            2007-06-07 EVERETT Middle…      22 hispan… female  vehi… FALSE  
    ##  6 6            2007-06-07 MEDFORD Middle…      34 white   male    vehi… FALSE  
    ##  7 7            2007-06-07 SOMERV… Middle…      54 hispan… male    vehi… FALSE  
    ##  8 8            2007-06-07 HOPKIN… Middle…      31 hispan… female  vehi… FALSE  
    ##  9 9            2007-06-07 SOMERV… Middle…      21 white   male    vehi… FALSE  
    ## 10 10           2007-06-06 BARNST… Barnst…      56 white   male    vehi… FALSE  
    ## # … with 3,416,228 more rows, 15 more variables: citation_issued <lgl>,
    ## #   warning_issued <lgl>, outcome <fct>, contraband_found <lgl>,
    ## #   contraband_drugs <lgl>, contraband_weapons <lgl>, contraband_alcohol <lgl>,
    ## #   contraband_other <lgl>, frisk_performed <lgl>, search_conducted <lgl>,
    ## #   search_basis <fct>, reason_for_stop <chr>, vehicle_type <chr>,
    ## #   vehicle_registration_state <fct>, raw_Race <chr>, and abbreviated variable
    ## #   names ¹​raw_row_number, ²​location, ³​county_name, ⁴​subject_age, …
…
``` r
fit_q9_by_county = do(df_q9_bycounty, 
    glm(formula = arrest_made ~ subject_race,
        data = .,
        family = "binomial") %>% 
    tidy())

fit_q9_by_county
```

    ## # A tibble: 30 × 6
    ## # Groups:   county_name [15]
    ##    county_name       term              estimate std.error statistic   p.value
    ##    <chr>             <chr>                <dbl>     <dbl>     <dbl>     <dbl>
    ##  1 Barnstable County (Intercept)         -3.78     0.0228  -165.    0        
    ##  2 Barnstable County subject_raceblack    0.477    0.0747     6.39  1.65e- 10
    ##  3 Berkshire County  (Intercept)         -4.21     0.0247  -170.    0        
    ##  4 Berkshire County  subject_raceblack    0.786    0.0755    10.4   2.21e- 25
    ##  5 Bristol County    (Intercept)         -3.10     0.0129  -241.    0        
    ##  6 Bristol County    subject_raceblack    0.436    0.0309    14.1   2.18e- 45
    ##  7 Dukes County      (Intercept)         -3.66     0.0988   -37.1   8.22e-301
    ##  8 Dukes County      subject_raceblack   -0.287    0.424     -0.678 4.98e-  1
    ##  9 Essex County      (Intercept)         -3.37     0.0125  -269.    0        
    ## 10 Essex County      subject_raceblack    0.515    0.0370    13.9   6.24e- 44
    ## # … with 20 more rows
…
